{
  "version": 2,
  "alias": [
    "www.matilde.dev",
    "matilderosa.dev",
    "www.matilderosa.dev"
  ],
  "routes": [
    {
      "src": "/(.*)",
      "status": 301,
      "headers": { "Location": "https://matilde.dev/$1" }
    }
  ]
}
